…
#### Select

> Here we select columns that are related to users’ location:

``` r

library(tidyverse)


df <- get_data(n = 500, seed = 123)


df %>% select(contains("location"))
#> # A tibble: 500 x 10
#>    location_street~ location_street~ location_city location_state
#>               <dbl> <chr>            <chr>         <chr>         
#>  1             9120 Rua Três         Parnaíba      Roraima       
#>  2             3420 Armagh Street    Taupo         West Coast    
#>  3             7871 Hämeentie        Tyrnävä       Åland         
#>  4             9456 Henry Street     Kilkenny      Wexford       
#>  5             8290 Bulevardi        Tervo         Tavastia Prop~
#>  6             4794 Rue Bossuet      Lamone        Zug           
#>  7             1201 Richmond Road    Brighton and~ Buckinghamshi~
#>  8             2483 Cedar St         Beaumont      British Colum~
#>  9              659 Vatan Cd         Hakkâri       Elazig        
#> 10             4841 Bagdat Cd        Bursa         Karaman       
#> # ... with 490 more rows, and 6 more variables: location_country <chr>,
#> #   location_postcode <chr>, location_coordinates_latitude <dbl>,
#> #   location_coordinates_longitude <dbl>, location_timezone_offset <chr>,
#> #   location_timezone_description <chr>
```

#### Filter

> Getting the users that are US citizens:

``` r



df %>% filter(nat == "US")
#> # A tibble: 25 x 34
#>    gender name_title name_first name_last location_street~ location_street~
#>    <chr>  <chr>      <chr>      <chr>                <dbl> <chr>           
#>  1 female Miss       Bella      Palmer                6951 First Street    
#>  2 male   Mr         Joseph     Gardner               8106 Eason Rd        
#>  3 female Mrs        Marlene    James                 4385 Spring St       
#>  4 male   Mr         Raymond    Day                   6389 Spring Hill Rd  
#>  5 male   Mr         Lester     Marshall              9574 White Oak Dr    
#>  6 male   Mr         Wyatt      Stevens               3341 Ash Dr          
#>  7 female Ms         Linda      James                 4549 Spring St       
#>  8 female Ms         Darlene    Lee                   4457 Hunters Creek Dr
#>  9 male   Mr         Nathaniel  Henderson             6333 W Pecan St      
#> 10 male   Mr         Sean       Stephens              3079 Dogwood Ave     
#> # ... with 15 more rows, and 28 more variables: location_city <chr>,
#> #   location_state <chr>, location_country <chr>, location_postcode <chr>,
#> #   location_coordinates_latitude <dbl>, location_coordinates_longitude <dbl>,
#> #   location_timezone_offset <chr>, location_timezone_description <chr>,
#> #   email <chr>, login_uuid <chr>, login_username <chr>, login_password <chr>,
#> #   login_salt <chr>, login_md5 <chr>, login_sha1 <chr>, login_sha256 <chr>,
#> #   dob_date <dttm>, dob_age <dbl>, registered_date <dttm>,
#> #   registered_age <dbl>, phone <chr>, cell <chr>, id_name <chr>,
#> #   id_value <chr>, picture_large <chr>, picture_medium <chr>,
#> #   picture_thumbnail <chr>, nat <chr>
```

#### relocate

> Relocating the last column `nat` to the beginning:

``` r

df %>% relocate(nat, before = gender)
#> # A tibble: 500 x 34
#>    nat   gender name_title name_first name_last location_street~
#>    <chr> <chr>  <chr>      <chr>      <chr>                <dbl>
#>  1 BR    male   Mr         Heldo      Campos                9120
#>  2 NZ    female Mrs        Peyton     Jackson               3420
#>  3 FI    female Ms         Viivi      Ruona                 7871
#>  4 IE    female Mrs        Kaitlin    Steward               9456
#>  5 FI    female Miss       Linnea     Pulkkinen             8290
#>  6 CH    female Madame     Valentine  Le Gall               4794
#>  7 GB    female Mrs        Suzanna    Miller                1201
#>  8 CA    male   Mr         Antoine    Thompson              2483
#>  9 TR    female Miss       Latife     Kurutluo~              659
#> 10 TR    male   Mr         Vedat      Aydan                 4841
#> # ... with 490 more rows, and 28 more variables: location_street_name <chr>,
#> #   location_city <chr>, location_state <chr>, location_country <chr>,
#> #   location_postcode <chr>, location_coordinates_latitude <dbl>,
#> #   location_coordinates_longitude <dbl>, location_timezone_offset <chr>,
#> #   location_timezone_description <chr>, email <chr>, login_uuid <chr>,
#> #   login_username <chr>, login_password <chr>, login_salt <chr>,
#> #   login_md5 <chr>, login_sha1 <chr>, login_sha256 <chr>, dob_date <dttm>,
#> #   dob_age <dbl>, registered_date <dttm>, registered_age <dbl>, phone <chr>,
#> #   cell <chr>, id_name <chr>, id_value <chr>, picture_large <chr>,
…
